{
    "config": {
        "title": "Octopus Agile",
        "step": {
            "user": {
                "title": "Please enter Region Code",
                "description": "Could not automatically determine your Octopus Agile region code, please enter manually",
                "data": {
                    "region_code": "Octopus Region Code"
                }
            }
        },
        "error": {
            "cannot_connect": "Failed to connect, please try again",
            "invalid_auth": "Invalid authentication",
            "unknown": "Unexpected error"
        },
        "abort": {
            "already_configured": "Device is already configured",
            "location_error": "Couldn't fetch location"
        }
    }
}